{
  "status_code": 200,
  "status_message": "Document for inspection",
  "data": [
    {
      "carModel": "Toyotal Innova crysta",
      "jobsCount": "6",
      "carRegistrationNumber": "DL2C 32423",
      "jobList": [
        {
          "subIssues": "Dry dent, Partial paint",
          "issues": "Scratches, Dent",
          "jobNames": "1. Front bumper"
        },
        {
          "subIssues": "Paint",
          "issues": "Scratches",
          "jobNames": "2. Front Bumper Grill"
        },
        {
          "subIssues": "Replace",
          "issues": "Damage",
          "jobNames": "3. Bullguard"
        },
        {
          "subIssues": "Replace",
          "issues": "Bulb replace",
          "jobNames": "4. Right headlight"
        },
        {
          "subIssues": "Replace bulb",
          "issues": "Scratch, Crack, Motor not working",
          "jobNames": "5. Right Side Mirror"
        },
        {
          "subIssues": "Repair",
          "issues": "Minor damage",
          "jobNames": "6. Right headlight support"
        }
      ],
      "documentList": [
        {
          "documentName": "Job Card",
          "isMandatory": true,
          "documentList": [
            "https://s3.ap-south-1.amazonaws.com/uctinspectionchecklistrevv/uct/photos/56/IMG_20201107_204018_625.jpg",
            "https://s3.ap-south-1.amazonaws.com/uctinspectionchecklistrevv/uct/photos/56/56_Car_keys_1612176085791.jpeg"
          ]
        },
        {
          "documentName": "Refurb Card",
          "isMandatory": false,
          "documentList": [
            "https://s3.ap-south-1.amazonaws.com/uctinspectionchecklistrevv/uct/photos/56/IMG_20210129_005754_909.jpg"
          ]
        }
      ]
    }
  ]
}